---
http_interactions:
- request:
    method: post
    uri: https://accounts.spotify.com/api/token
    body:
      encoding: US-ASCII
      string: grant_type=client_credentials
    headers:
      Accept-Encoding:
      - gzip;q=1.0,deflate;q=0.6,identity;q=0.3
      Accept:
      - "*/*"
      User-Agent:
      - Ruby
      Host:
      - accounts.spotify.com
      Authorization:
      - Basic YjJhZDgwMzVlYTk0NDg4YmFlNGRkYWU1MDgwMTBhYmU6ZGZmYjczZDg1ZjUxNDExMmIzOTAzZDcyOWY1YmNlYzg=
      Content-Type:
      - application/x-www-form-urlencoded
  response:
    status:
      code: 200
      message: OK
    headers:
      Date:
      - Wed, 08 Jan 2020 18:41:30 GMT
      Content-Type:
      - application/json
      Set-Cookie:
      - __Host-device_id=AQD90D5LJbg-nwtKwLFUUvoen2wFOg9uZ38ACGYIVmjhN1Te9UZXxgYq9LpCjlPHSQz5_3hqZe0QGrpKNrfuhGuRB1T29epJ_qk;Version=1;Path=/;Max-Age=2147483647;Secure;HttpOnly
      Server:
      - envoy
      X-Envoy-Upstream-Service-Time:
      - '3'
      Strict-Transport-Security:
      - max-age=31536000
      X-Content-Type-Options:
      - nosniff
      Vary:
      - Accept-Encoding
      Via:
      - HTTP/2 edgeproxy, 1.1 google
      Alt-Svc:
      - clear
      Transfer-Encoding:
      - chunked
    body:
      encoding: ASCII-8BIT
      string: '{"access_token":"BQChz5VBYl7YgNhAY9a-lEDQ6NxD2DBcbOYserTE-XJ_gjpkDNfGPDHB-iOlPEpr4vXm4nOk_ugbvXbXWDM","token_type":"Bearer","expires_in":3600,"scope":""}'
    http_version: 
  recorded_at: Wed, 08 Jan 2020 18:41:31 GMT
- request:
    method: get
    uri: https://api.spotify.com/v1/search?limit=1&q=still%20dre&type=track
    body:
      encoding: US-ASCII
      string: ''
    headers:
      Accept-Encoding:
      - gzip;q=1.0,deflate;q=0.6,identity;q=0.3
      Accept:
      - "*/*"
      User-Agent:
      - Ruby
      Host:
      - api.spotify.com
      Authorization:
      - Bearer BQChz5VBYl7YgNhAY9a-lEDQ6NxD2DBcbOYserTE-XJ_gjpkDNfGPDHB-iOlPEpr4vXm4nOk_ugbvXbXWDM
  response:
    status:
      code: 200
      message: OK
    headers:
      Content-Type:
      - application/json; charset=utf-8
      Cache-Control:
      - public, max-age=7200
      Access-Control-Allow-Origin:
      - "*"
      Access-Control-Allow-Headers:
      - Accept, App-Platform, Authorization, Content-Type, Origin, Retry-After, Spotify-App-Version,
        X-Cloud-Trace-Context
      Access-Control-Allow-Methods:
      - GET, POST, OPTIONS, PUT, DELETE, PATCH
      Access-Control-Allow-Credentials:
      - 'true'
      Access-Control-Max-Age:
      - '604800'
      Date:
      - Wed, 08 Jan 2020 18:41:31 GMT
      Via:
      - 1.1 google
      Alt-Svc:
      - clear
      Transfer-Encoding:
      - chunked
    body:
      encoding: ASCII-8BIT
      string: |-
        {
          "tracks" : {
            "href" : "https://api.spotify.com/v1/search?query=still+dre&type=track&offset=0&limit=1",
            "items" : [ {
              "album" : {
                "album_type" : "album",
                "artists" : [ {
                  "external_urls" : {
                    "spotify" : "https://open.spotify.com/artist/6DPYiyq5kWVQS4RGwxzPC7"
                  },
                  "href" : "https://api.spotify.com/v1/artists/6DPYiyq5kWVQS4RGwxzPC7",
                  "id" : "6DPYiyq5kWVQS4RGwxzPC7",
                  "name" : "Dr. Dre",
                  "type" : "artist",
                  "uri" : "spotify:artist:6DPYiyq5kWVQS4RGwxzPC7"
                } ],
                "available_markets" : [ "AD", "AE", "AR", "AT", "AU", "BE", "BG", "BH", "BO", "BR", "CA", "CH", "CL", "CO", "CR", "CY", "CZ", "DE", "DK", "DO", "DZ", "EC", "EE", "EG", "ES", "FI", "FR", "GB", "GR", "GT", "HK", "HN", "HU", "ID", "IE", "IL", "IS", "IT", "JO", "JP", "KW", "LB", "LI", "LT", "LU", "LV", "MA", "MC", "MT", "MX", "MY", "NI", "NL", "NO", "NZ", "OM", "PA", "PE", "PH", "PL", "PT", "PY", "QA", "RO", "SA", "SE", "SG", "SK", "SV", "TH", "TN", "TR", "TW", "US", "UY", "VN", "ZA" ],
                "external_urls" : {
                  "spotify" : "https://open.spotify.com/album/7q2B4M5EiBkqrlsNW8lB7N"
                },
                "href" : "https://api.spotify.com/v1/albums/7q2B4M5EiBkqrlsNW8lB7N",
                "id" : "7q2B4M5EiBkqrlsNW8lB7N",
                "images" : [ {
                  "height" : 636,
                  "url" : "https://i.scdn.co/image/5e1b25c45e9ea76e987c16bfad41bf1c9f4f146c",
                  "width" : 640
                }, {
                  "height" : 298,
                  "url" : "https://i.scdn.co/image/de0eeffd30139a74b624e901d2157e0bd26e0976",
                  "width" : 300
                }, {
                  "height" : 64,
                  "url" : "https://i.scdn.co/image/3a9308bb33fe61ca9758060ddfd0096313c5e563",
                  "width" : 64
                } ],
                "name" : "2001",
                "release_date" : "1999-11-16",
                "release_date_precision" : "day",
                "total_tracks" : 23,
                "type" : "album",
                "uri" : "spotify:album:7q2B4M5EiBkqrlsNW8lB7N"
              },
              "artists" : [ {
                "external_urls" : {
                  "spotify" : "https://open.spotify.com/artist/6DPYiyq5kWVQS4RGwxzPC7"
                },
                "href" : "https://api.spotify.com/v1/artists/6DPYiyq5kWVQS4RGwxzPC7",
                "id" : "6DPYiyq5kWVQS4RGwxzPC7",
                "name" : "Dr. Dre",
                "type" : "artist",
                "uri" : "spotify:artist:6DPYiyq5kWVQS4RGwxzPC7"
              }, {
                "external_urls" : {
                  "spotify" : "https://open.spotify.com/artist/7hJcb9fa4alzcOq3EaNPoG"
                },
                "href" : "https://api.spotify.com/v1/artists/7hJcb9fa4alzcOq3EaNPoG",
                "id" : "7hJcb9fa4alzcOq3EaNPoG",
                "name" : "Snoop Dogg",
                "type" : "artist",
                "uri" : "spotify:artist:7hJcb9fa4alzcOq3EaNPoG"
              } ],
              "available_markets" : [ "AD", "AE", "AR", "AT", "AU", "BE", "BG", "BH", "BO", "BR", "CA", "CH", "CL", "CO", "CR", "CY", "CZ", "DE", "DK", "DO", "DZ", "EC", "EE", "EG", "ES", "FI", "FR", "GB", "GR", "GT", "HK", "HN", "HU", "ID", "IE", "IL", "IS", "IT", "JO", "JP", "KW", "LB", "LI", "LT", "LU", "LV", "MA", "MC", "MT", "MX", "MY", "NI", "NL", "NO", "NZ", "OM", "PA", "PE", "PH", "PL", "PT", "PY", "QA", "RO", "SA", "SE", "SG", "SK", "SV", "TH", "TN", "TR", "TW", "US", "UY", "VN", "ZA" ],
              "disc_number" : 1,
              "duration_ms" : 270586,
              "explicit" : true,
              "external_ids" : {
                "isrc" : "USIR19905031"
              },
              "external_urls" : {
                "spotify" : "https://open.spotify.com/track/503OTo2dSqe7qk76rgsbep"
              },
              "href" : "https://api.spotify.com/v1/tracks/503OTo2dSqe7qk76rgsbep",
              "id" : "503OTo2dSqe7qk76rgsbep",
              "is_local" : false,
              "name" : "Still D.R.E.",
              "popularity" : 75,
              "preview_url" : null,
              "track_number" : 4,
              "type" : "track",
              "uri" : "spotify:track:503OTo2dSqe7qk76rgsbep"
            } ],
            "limit" : 1,
            "next" : "https://api.spotify.com/v1/search?query=still+dre&type=track&offset=1&limit=1",
            "offset" : 0,
            "previous" : null,
            "total" : 257
          }
        }
    http_version: 
  recorded_at: Wed, 08 Jan 2020 18:41:31 GMT
recorded_with: VCR 5.0.0
